{
    "name": "UnityRandom",
    "rootNamespace": "AttaboysGames",
    "references": [
        "GUID:0d8beb7f090555447a6cf5ce9e54dbb4"
    ],
    "includePlatforms": [],
    "excludePlatforms": [],
    "allowUnsafeCode": false,
    "overrideReferences": false,
    "precompiledReferences": [],
    "autoReferenced": true,
    "defineConstraints": [],
    "versionDefines": [],
    "noEngineReferences": false
}